%YAML 1.1
%TAG !u! tag:unity3d.com,2011:
--- !u!114 &11400000
MonoBehaviour:
  m_ObjectHideFlags: 0
  m_CorrespondingSourceObject: {fileID: 0}
  m_PrefabInstance: {fileID: 0}
  m_PrefabAsset: {fileID: 0}
  m_GameObject: {fileID: 0}
  m_Enabled: 1
  m_EditorHideFlags: 0
  m_Script: {fileID: 11500000, guid: 40da70e3ab2fb174b97fd0fbb9f690fc, type: 3}
  m_Name: data_guiset_RESTART
  m_EditorClassIdentifier: 
  isTouchEnable: 0
  buttons:
  - {fileID: 11400000, guid: f67db04b1d0b32f4485c101c2246d373, type: 2}
  indicationValue:
  - {fileID: 11400000, guid: 1b155b4fb88b68046b4eba525a31e515, type: 2}
